# MODFLOW2000 Discretization File
 2  50  50  1  4  0
 0 0
         0  100.0000(10E12.4)                    0     DELTA-X or C
         0  100.0000(10E12.4)                    0     DELTA-Y or R
         0  100.0000(10e12.4)                   -1     TOP of Model
         0  50.00000(10e12.4)                   -1     BOTTOM of Layer   1
         00.0000e+00(10e12.4)                   -1     BOTTOM of Layer   2
  1.000000  1  1.200000  SS
